fpmac/traces/dump.vcd
$version Generated by VerilatedVcd $end
$timescale 1ps $end
 $scope module TOP $end
  $var wire 16 m i_a [15:0] $end
  $var wire 16 n i_b [15:0] $end
  $var wire 16 o i_c [15:0] $end
  $var wire 16 p o_result [15:0] $end
  $scope module FPMAC $end
   $var wire 16 m i_a [15:0] $end
   $var wire 16 n i_b [15:0] $end
   $var wire 16 o i_c [15:0] $end
   $var wire 16 p o_result [15:0] $end
   $var wire 16 # w_mult_result [15:0] $end
   $var wire 1 $ w_mult_snan $end
   $var wire 1 % w_mult_qnan $end
   $var wire 1 & w_mult_infinity $end
   $var wire 1 ' w_mult_zero $end
   $var wire 1 ( w_mult_subnormal $end
   $var wire 1 ) w_mult_normal $end
   $var wire 1 } op_add $end
   $var wire 1 * w_add_ovf $end
   $var wire 1 + w_add_udf $end
   $scope module stage_add $end
    $var wire 32 ~ EXP_WIDTH [31:0] $end
    $var wire 32 !! MNTS_WIDTH [31:0] $end
    $var wire 1 } i_op_add_sub $end
    $var wire 16 # i_a [15:0] $end
    $var wire 16 o i_b [15:0] $end
    $var wire 16 p o_y [15:0] $end
    $var wire 1 * o_overflow $end
    $var wire 1 + o_underflow $end
    $var wire 32 "! EXP_SPAN [31:0] $end
    $var wire 32 #! MNTS_SPAN [31:0] $end
    $var wire 32 $! SIGN_IND [31:0] $end
    $var wire 32 !! EXP_BEG_IND [31:0] $end
    $var wire 32 %! EXP_END_IND [31:0] $end
    $var wire 32 &! MNTS_BEG_IND [31:0] $end
    $var wire 32 #! MNTS_END_IND [31:0] $end
    $var wire 1 , sign_a $end
    $var wire 5 - exp_a [4:0] $end
    $var wire 10 . mnts_a [9:0] $end
    $var wire 1 q sign_b $end
    $var wire 5 r exp_b [4:0] $end
    $var wire 10 s mnts_b [9:0] $end
    $var wire 1 t large_sign $end
    $var wire 5 / large_exp [4:0] $end
    $var wire 10 0 large_mnts [9:0] $end
    $var wire 1 u small_sign $end
    $var wire 5 v small_exp [4:0] $end
    $var wire 10 1 small_mnts [9:0] $end
    $var wire 11 2 ext_larg_mnts [10:0] $end
    $var wire 11 3 ext_small_mnts [10:0] $end
    $var wire 5 4 exp_diff [4:0] $end
    $var wire 32 '! GR_no_sticky_WIDTH [31:0] $end
    $var wire 32 (! GRS_WIDTH [31:0] $end
    $var wire 13 5 no_sticky_ulp_small_mnts [12:0] $end
    $var wire 1 6 sticky $end
    $var wire 32 )! MAX_SHIFT [31:0] $end
    $var wire 14 7 shifted_small_mnts [13:0] $end
    $var wire 1 *! OP_SUB [0:0] $end
    $var wire 1 +! OP_ADD [0:0] $end
    $var wire 15 8 mnts_adder_out [14:0] $end
    $var wire 14 9 mnts_res_base [13:0] $end
    $var wire 1 : mnts_res_cout $end
    $var wire 1 ; cond_mnts_complement $end
    $var wire 14 < aligned_large_mnts [13:0] $end
    $var wire 4 = renorm_shamt [3:0] $end
    $var wire 5 > exp_res [4:0] $end
    $var wire 1 t sign_res $end
    $var wire 15 ? shifted_mnts_ulp_cout_unadj_sticky [14:0] $end
    $var wire 15 @ shifted_mnts_ulp_cout [14:0] $end
    $var wire 13 A mnts_res_ulp [12:0] $end
    $var wire 1 B r_shift_new_sticky $end
    $var wire 1 C exp_cout_norm_1 $end
    $var wire 1 D round_L $end
    $var wire 1 E round_G $end
    $var wire 1 F round_R $end
    $var wire 1 G round_S $end
    $var wire 1 H round_a $end
    $var wire 1 I cond_renorm_stage_1 $end
    $var wire 1 J cond_renorm $end
    $var wire 10 K mnts_rnd_res [9:0] $end
    $var wire 1 L exp_ovf_flag $end
    $var wire 1 M exp_cout_norm_2 $end
    $var wire 5 N renorm_exp_res [4:0] $end
    $var wire 10 O renorm_mnts_rnd_res [9:0] $end
    $var wire 10 P final_mnts_res [9:0] $end
    $var wire 5 Q final_exp_res [4:0] $end
   $upscope $end
   $scope module stage_mult $end
    $var wire 16 m a [15:0] $end
    $var wire 16 n b [15:0] $end
    $var wire 16 # p [15:0] $end
    $var wire 1 $ snan $end
    $var wire 1 % qnan $end
    $var wire 1 & infinity $end
    $var wire 1 ' zero $end
    $var wire 1 ( subnormal $end
    $var wire 1 ) normal $end
    $var wire 1 R aSnan $end
    $var wire 1 S aQnan $end
    $var wire 1 T aInfinity $end
    $var wire 1 U aZero $end
    $var wire 1 V aSubnormal $end
    $var wire 1 W aNormal $end
    $var wire 1 X bSnan $end
    $var wire 1 Y bQnan $end
    $var wire 1 Z bInfinity $end
    $var wire 1 [ bZero $end
    $var wire 1 \ bSubnormal $end
    $var wire 1 ] bNormal $end
    $var wire 7 ^ aExp [6:0] $end
    $var wire 7 _ bExp [6:0] $end
    $var wire 7 ` pExp [6:0] $end
    $var wire 7 a t1Exp [6:0] $end
    $var wire 7 b t2Exp [6:0] $end
    $var wire 11 c aSig [10:0] $end
    $var wire 11 d bSig [10:0] $end
    $var wire 11 e pSig [10:0] $end
    $var wire 11 f tSig [10:0] $end
    $var wire 16 # pTmp [15:0] $end
    $var wire 22 g rawSignificand [21:0] $end
    $var wire 1 h pSign $end
    $scope module aClass $end
     $var wire 16 m f [15:0] $end
     $var wire 7 ^ fExp [6:0] $end
     $var wire 11 c fSig [10:0] $end
     $var wire 1 R isSnan $end
     $var wire 1 S isQnan $end
     $var wire 1 T isInfinity $end
     $var wire 1 U isZero $end
     $var wire 1 V isSubnormal $end
     $var wire 1 W isNormal $end
     $var wire 1 w expOnes $end
     $var wire 1 x expZeroes $end
     $var wire 1 y sigZeroes $end
     $var wire 11 ,! mask [10:0] $end
     $var wire 4 i sa [3:0] $end
     $var wire 32 j i [31:0] $end
    $upscope $end
    $scope module bClass $end
     $var wire 16 n f [15:0] $end
     $var wire 7 _ fExp [6:0] $end
     $var wire 11 d fSig [10:0] $end
     $var wire 1 X isSnan $end
     $var wire 1 Y isQnan $end
     $var wire 1 Z isInfinity $end
     $var wire 1 [ isZero $end
     $var wire 1 \ isSubnormal $end
     $var wire 1 ] isNormal $end
     $var wire 1 z expOnes $end
     $var wire 1 { expZeroes $end
     $var wire 1 | sigZeroes $end
     $var wire 11 ,! mask [10:0] $end
     $var wire 4 k sa [3:0] $end
     $var wire 32 l i [31:0] $end
    $upscope $end
   $upscope $end
  $upscope $end
 $upscope $end
$enddefinitions $end


#0
b0000000000000000 #
0$
0%
0&
1'
0(
0)
0*
0+
0,
b00000 -
b0000000000 .
b00000 /
b0000000000 0
b0000000000 1
b10000000000 2
b10000000000 3
b00000 4
b1000000000000 5
06
b10000000000000 7
b100000000000000 8
b00000000000000 9
1:
0;
b10000000000000 <
b1110 =
b00001 >
b010000000000000 ?
b000000000000000 @
b0000000000000 A
0B
0C
0D
0E
0F
0G
0H
0I
0J
b0000000000 K
0L
0M
b00001 N
b0000000000 O
b0000000000 P
b00000 Q
0R
0S
0T
0U
0V
1W
0X
0Y
0Z
0[
0\
1]
b1110100 ^
b1110011 _
b0000000 `
b1100111 a
b1100111 b
b10001111111 c
b10001111111 d
b00000000000 e
b10100001101 f
b0101000011011100000001 g
0h
b0000 i
b00000000000000000000000000000000 j
b0000 k
b00000000000000000000000000000000 l
b0000110001111111 m
b0000100001111111 n
b0000000000000000 o
b0000000000000000 p
0q
b00000 r
b0000000000 s
0t
0u
b00000 v
0w
0x
0y
0z
0{
0|
0}
b00000000000000000000000000000101 ~
b00000000000000000000000000001010 !!
b00000000000000000000000000000100 "!
b00000000000000000000000000001001 #!
b00000000000000000000000000001111 $!
b00000000000000000000000000001110 %!
b00000000000000000000000000000000 &!
b00000000000000000000000000000010 '!
b00000000000000000000000000000011 (!
b00000000000000000000000000001101 )!
1*!
0+!
b11111111111 ,!
#1
b0000000000000001 #
0'
1(
b0000000001 .
b0000000001 0
b10000000001 2
b100000000001000 8
b00000000001000 9
b10000000001000 <
b010000000000100 ?
b0000000000100 A
1E
b1101000 b
b11111111111 c
b11111111111 d
b00000000001 e
b11111111110 f
b1111111111000000000001 g
b0000111111111111 m
b0000101111111111 n
#2
b0000000000000000 #
1'
0(
b0000000000 .
b0000000000 0
b10000000000 2
b100000000000000 8
b00000000000000 9
b10000000000000 <
b010000000000000 ?
b0000000000000 A
0E
b1100111 b
b10000000000 c
b11111001111 d
b11111001111 f
b0111110011110000000000 g
b0000110000000000 m
b0000101111001111 n
1y
#3
b11111001111 c
b10000000000 d
b0000111111001111 m
b0000100000000000 n
0y
1|
#4
b0000000000000011 #
0'
1(
b0000000011 .
b0000000011 0
b10000000011 2
b100000000011000 8
b00000000011000 9
b10000000011000 <
b010000000001100 ?
b0000000001100 A
1D
1E
1H
b0000000010 K
b0000000010 O
b0000000010 P
b00001 Q
b1110100 _
b1101000 a
b1101001 b
b11111111111 c
b11111111111 d
b00000000011 e
b11111111110 f
b1111111111000000000001 g
b0000111111111111 m
b0000111111111111 n
b0000010000000010 p
0|
#5
#6
b0111110000000000 #
1&
0(
b11111 -
b0000000000 .
b11111 /
b0000000000 0
b10000000000 2
b11111 4
16
b00000000000001 7
b010000000000001 8
b10000000000001 9
0:
b10000000000000 <
b0000 =
b11111 >
b000000000000000 ?
b010000000000001 @
b0000000000001 A
0D
0E
1G
0H
b0000000000 K
b11111 N
b0000000000 O
b0000000000 P
b00000 Q
b0001111 ^
b0001111 _
b0011110 a
b0011111 b
b0111101111111111 m
b0111101111111111 n
b0000000000000000 p
#7
b0111111000101010 #
1%
0&
b1000101010 .
b1000101010 0
b11000101010 2
b011000101010001 8
b11000101010001 9
b11000101010000 <
b011000101010001 @
b1000101010001 A
b1000101010 K
b1000101010 O
b1000101010 P
b11111 Q
1T
0W
1[
0]
b0011111 ^
b0000000 _
b00000000000 c
b00000000000 d
b0000000000000000000000 g
b0111110000000000 m
b0000000000000000 n
b0111111000101010 p
1w
1y
1{
1|
#8
b0111110000000000 #
0%
1&
b0000000000 .
b0000000000 0
b10000000000 2
b010000000000001 8
b10000000000001 9
b10000000000000 <
b010000000000001 @
b0000000000001 A
b0000000000 K
b0000000000 O
b0000000000 P
b00000 Q
0T
1W
0[
1]
b0001111 ^
b0001100 _
b0011011 a
b0011011 b
b10000000000 c
b11111111111 d
b11111111111 f
b0111111111110000000000 g
b0111100000000000 m
b0110111111111111 n
b0000000000000000 p
0w
0{
0|
#9
b11111111110 d
b11111111110 f
b0111111111100000000000 g
b0110111111111110 n
#10
b11111111101 d
b11111111101 f
b0111111111010000000000 g
b0110111111111101 n
#11
b11111111100 d
b11111111100 f
b0111111111000000000000 g
b0110111111111100 n
#12
b11111111011 d
b11111111011 f
b0111111110110000000000 g
b0110111111111011 n
#13
b11111111010 d
b11111111010 f
b0111111110100000000000 g
b0110111111111010 n
#14
b11111111001 d
b11111111001 f
b0111111110010000000000 g
b0110111111111001 n
#15
b11111111000 d
b11111111000 f
b0111111110000000000000 g
b0110111111111000 n
#16
b11111111111 d
b11111111111 f
b0111111111110000000000 g
b0110111111111111 n
#17
b11111111110 d
b11111111110 f
b0111111111100000000000 g
b0110111111111110 n
#18
b11111111101 d
b11111111101 f
b0111111111010000000000 g
b0110111111111101 n
#19
b11111111100 d
b11111111100 f
b0111111111000000000000 g
b0110111111111100 n
#20
b11111111011 d
b11111111011 f
b0111111110110000000000 g
b0110111111111011 n
#21
b11111111010 d
b11111111010 f
b0111111110100000000000 g
b0110111111111010 n
#22
b11111111001 d
b11111111001 f
b0111111110010000000000 g
b0110111111111001 n
#23
b11111111000 d
b11111111000 f
b0111111110000000000000 g
b0110111111111000 n
#24
b0001111 _
b0011110 a
b0011110 b
b11111111111 d
b11111111111 f
b0111111111110000000000 g
b0111101111111111 n
#25
b10000000000 d
b10000000000 f
b0100000000000000000000 g
b0111100000000000 n
1|
#26
b10000000111 c
b10000000111 d
b10000001110 f
b0100000011100000110001 g
b0111100000000111 m
b0111100000000111 n
0y
0|
#27
b0000000000000000 #
0&
1'
b00000 -
b00000 /
b1010101100 0
b11010101100 2
b00000 4
06
b10000000000000 7
b101010101100000 8
b01010101100000 9
1:
b11010101100000 <
b1110 =
b00001 >
b010101010110000 ?
b000000000000000 @
b0101010110000 A
0G
b0101010110 K
b00001 N
b0101010110 O
b0101010110 P
b00001 Q
1\
0]
b1110010 ^
b1110001 _
b1100011 a
b1100100 b
b11000000011 c
b11010011100 d
b10011110111 f
b1001111011101111010100 g
b0001 k
b0000011000000011 m
b0000001101001110 n
b0000001010101100 o
b0000010101010110 p
b1010101100 s
1{
#28
b0011000011 0
b10011000011 2
b100011000011000 8
b00011000011000 9
b10011000011000 <
b010001100001100 ?
b0001100001100 A
1D
1E
1H
b0001100010 K
b0001100010 O
b0001100010 P
b11011101010 c
b10100001100 d
b10001011100 f
b1000101110010011111000 g
b0000011011101010 m
b0000001010000110 n
b0000000011000011 o
b0000010001100010 p
b0011000011 s
#29
b0100000100 0
b10100000100 2
b100100000100000 8
b00100000100000 9
b10100000100000 <
b010010000010000 ?
b0010000010000 A
0D
0E
0H
b0010000010 K
b0010000010 O
b0010000010 P
1V
0W
b1110001 ^
b1110000 _
b11100001100 c
b10000100000 d
b0111010001000110000000 g
b0001 i
b0010 k
b0000001110000110 m
b0000000100001000 n
b0000000100000100 o
b0000010010000010 p
b0100000100 s
1x
#30
b0010001100 0
b10010001100 2
b100010001100000 8
b00010001100000 9
b10010001100000 <
b010001000110000 ?
b0001000110000 A
b0001000110 K
b0001000110 O
b0001000110 P
b1101110 ^
b1110001 _
b11000110000 c
b10010011010 d
b0111000111100011100000 g
b0100 i
b0001 k
b0000000001100011 m
b0000001001001101 n
b0000000010001100 o
b0000010001000110 p
b0010001100 s
#31
b0110100010 0
b10110100010 2
b100110100010000 8
b00110100010000 9
b10110100010000 <
b010011010001000 ?
b0011010001000 A
1D
b0011010001 K
b0011010001 O
b0011010001 P
0V
1W
0\
1]
b1110010 ^
b1110100 _
b1100110 a
b1100111 b
b11010100101 c
b10100100000 d
b10001000001 f
b1000100000110110100000 g
b0000 i
b0000 k
b0000011010100101 m
b0000110100100000 n
b0000000110100010 o
b0000010011010001 p
b0110100010 s
0x
0{
#32
b1111010000 0
b11111010000 2
b101111010000000 8
b01111010000000 9
b11111010000000 <
b010111101000000 ?
b0111101000000 A
0D
b0111101000 K
b0111101000 O
b0111101000 P
b1110010 _
b1100100 a
b1100100 b
b10001111110 c
b10011110101 d
b10110010001 f
b0101100100010010010110 g
b0000010001111110 m
b0000010011110101 n
b0000001111010000 o
b0000010111101000 p
b1111010000 s
#33
b1011000001 0
b11011000001 2
b101011000001000 8
b01011000001000 9
b11011000001000 <
b010101100000100 ?
b0101100000100 A
1E
b0101100000 K
b0101100000 O
b0101100000 P
1V
0W
1\
0]
b1110000 ^
b1110001 _
b11010100100 c
b11111101110 d
b1101001010100001111000 g
b0010 i
b0001 k
b0000000110101001 m
b0000001111110111 n
b0000001011000001 o
b0000010101100000 p
b1011000001 s
1x
1{
#34
b00001 /
b0101000000 0
b10101000000 2
b00001 4
b01000000000000 7
b011101000000000 8
b11101000000000 9
0:
b10101000000000 <
b0000 =
b000000000000000 ?
b011101000000000 @
b1101000000000 A
0E
b1101000000 K
b1101000000 O
b1101000000 P
b1110001 ^
b1110000 _
b11110010010 c
b10001111000 d
b1000011101010001110000 g
b0001 i
b0010 k
b0000001111001001 m
b0000000100011110 n
b0000010101000000 o
b0000011101000000 p
b00001 r
b0101000000 s
#35
b1010110100 0
b11010110100 2
b100010110100000 8
b00010110100000 9
1:
b11010110100000 <
b1110 =
b00010 >
b010001011010000 ?
b000000000000000 @
b0001011010000 A
b0001011010 K
b00010 N
b0001011010 O
b0001011010 P
b00010 Q
b1101111 ^
b11010010000 c
b11100110000 d
b1011110010101100000000 g
b0011 i
b0000000011010010 m
b0000000111001100 n
b0000011010110100 o
b0000100001011010 p
b1010110100 s
#36
b00000 /
b1110000100 0
b11110000100 2
b00000 4
b10000000000000 7
b101110000100000 8
b01110000100000 9
b11110000100000 <
b00001 >
b010111000010000 ?
b0111000010000 A
b0111000010 K
b00001 N
b0111000010 O
b0111000010 P
b00001 Q
b1110001 ^
b1101110 _
b10100100000 c
b11010000000 d
b1000010101000000000000 g
b0001 i
b0100 k
b0000001010010000 m
b0000000001101000 n
b0000001110000100 o
b0000010111000010 p
b00000 r
b1110000100 s
